[gd_scene load_steps=5 format=2]

[ext_resource path="res://scenes/WorldChunk/Chunk.gd" type="Script" id=1]
[ext_resource path="res://scenes/WorldChunk/ChunkTileset.tres" type="TileSet" id=2]
[ext_resource path="res://scenes/WorldChunk/DifficultyTrigger.gd" type="Script" id=3]

[sub_resource type="RayShape2D" id=1]
length = 400.0

[node name="Chunk" type="Node2D"]
script = ExtResource( 1 )

[node name="TileMap" type="TileMap" parent="."]
tile_set = ExtResource( 2 )
cell_size = Vector2( 16, 16 )
collision_layer = 4
collision_mask = 3
format = 1
tile_data = PoolIntArray( -262144, 1, 0, -262143, 1, 0, -262142, 1, 0, -262141, 1, 0, -262140, 1, 0, -262139, 1, 0, -262138, 1, 0, -262137, 1, 0, -262136, 1, 0, -262135, 1, 0, -262134, 1, 0, -262133, 1, 0, -262132, 1, 0, -262131, 1, 0, -262130, 1, 0, -262129, 1, 0, -262128, 1, 0, -262127, 1, 0, -262126, 1, 0, -262125, 1, 0, -262124, 1, 0, -262123, 1, 0, -262122, 1, 0, -262121, 1, 0, -262120, 1, 0, -196608, 3, 0, -196607, 3, 0, -196606, 3, 0, -196605, 3, 0, -196604, 3, 0, -196603, 3, 0, -196602, 3, 0, -196601, 3, 0, -196600, 3, 0, -196599, 3, 0, -196598, 3, 0, -196597, 3, 0, -196596, 3, 0, -196595, 3, 0, -196594, 3, 0, -196593, 3, 0, -196592, 3, 0, -196591, 3, 0, -196590, 3, 0, -196589, 3, 0, -196588, 3, 0, -196587, 3, 0, -196586, 3, 0, -196585, 3, 0, -196584, 3, 0, -131072, 3, 0, -131071, 3, 0, -131070, 3, 0, -131069, 3, 0, -131068, 3, 0, -131067, 3, 0, -131066, 3, 0, -131065, 3, 0, -131064, 3, 0, -131063, 3, 0, -131062, 3, 0, -131061, 3, 0, -131060, 3, 0, -131059, 3, 0, -131058, 3, 0, -131057, 3, 0, -131056, 3, 0, -131055, 3, 0, -131054, 3, 0, -131053, 3, 0, -131052, 3, 0, -131051, 3, 0, -131050, 3, 0, -131049, 3, 0, -131048, 3, 0, -65536, 3, 0, -65535, 3, 0, -65534, 3, 0, -65533, 3, 0, -65532, 3, 0, -65531, 3, 0, -65530, 3, 0, -65529, 3, 0, -65528, 3, 0, -65527, 3, 0, -65526, 3, 0, -65525, 3, 0, -65524, 3, 0, -65523, 3, 0, -65522, 3, 0, -65521, 3, 0, -65520, 3, 0, -65519, 3, 0, -65518, 3, 0, -65517, 3, 0, -65516, 3, 0, -65515, 3, 0, -65514, 3, 0, -65513, 3, 0, -65512, 3, 0 )

[node name="VisibilityNotifier2D" type="VisibilityNotifier2D" parent="."]
position = Vector2( 199.734, -32.5922 )
scale = Vector2( 20.0214, 3.21 )

[node name="Obstacles" type="Node2D" parent="."]

[node name="DifficultyTrigger" type="Area2D" parent="."]
collision_layer = 8
script = ExtResource( 3 )

[node name="Collision" type="CollisionShape2D" parent="DifficultyTrigger"]
position = Vector2( 390, -64 )
rotation = 3.14159
shape = SubResource( 1 )
one_way_collision = true
